JobId=2314393 JobName=runfile.sh
   UserId=lfz197(4590) GroupId=levina(4024) MCS_label=N/A
   Priority=85255 Nice=0 Account=levina QOS=normal
   JobState=RUNNING Reason=None Dependency=(null)
   Requeue=1 Restarts=0 BatchFlag=1 Reboot=0 ExitCode=0:0
   RunTime=00:00:01 TimeLimit=2-23:00:00 TimeMin=N/A
   SubmitTime=2023-01-20T20:27:14 EligibleTime=2023-01-20T20:27:14
   AccrueTime=2023-01-20T20:27:15
   StartTime=2023-01-20T20:27:15 EndTime=2023-01-23T19:27:15 Deadline=N/A
   PreemptEligibleTime=2023-01-20T20:28:15 PreemptTime=None
   SuspendTime=None SecsPreSuspend=0 LastSchedEval=2023-01-20T20:27:15
   Partition=cpu-long AllocNode:Sid=bg-slurmb-1:3156844
   ReqNodeList=(null) ExcNodeList=(null)
   NodeList=slurm-cpu-hm-3
   BatchHost=slurm-cpu-hm-3
   NumNodes=1 NumCPUs=2 NumTasks=1 CPUs/Task=1 ReqB:S:C:T=0:0:*:*
   TRES=cpu=2,mem=64G,node=1
   Socks/Node=* NtasksPerN:B:S:C=0:0:*:* CoreSpec=*
   MinCPUsNode=1 MinMemoryNode=64G MinTmpDiskNode=0
   Features=(null) DelayBoot=00:00:00
   OverSubscribe=OK Contiguous=0 Licenses=(null) Network=(null)
   Command=/mnt/qb/work/levina/lfz197/runfile.sh
   WorkDir=/mnt/qb/work/levina/lfz197
   StdErr=/mnt/qb/work/levina/lfz197/log/hostname_2314393.err
   StdIn=/dev/null
   StdOut=/mnt/qb/work/levina/lfz197/log/hostname_2314393.out
   Power=
   NtasksPerTRES:0

