JobId=2332772 JobName=runfile.sh
   UserId=lfz197(4590) GroupId=levina(4024) MCS_label=N/A
   Priority=83830 Nice=0 Account=levina QOS=normal
   JobState=RUNNING Reason=None Dependency=(null)
   Requeue=1 Restarts=0 BatchFlag=1 Reboot=0 ExitCode=0:0
   RunTime=00:00:02 TimeLimit=2-23:00:00 TimeMin=N/A
   SubmitTime=2023-01-23T18:15:29 EligibleTime=2023-01-23T18:15:29
   AccrueTime=2023-01-23T18:15:29
   StartTime=2023-01-23T18:15:54 EndTime=2023-01-26T17:15:54 Deadline=N/A
   PreemptEligibleTime=2023-01-23T18:16:54 PreemptTime=None
   SuspendTime=None SecsPreSuspend=0 LastSchedEval=2023-01-23T18:15:54
   Partition=cpu-long AllocNode:Sid=bg-slurmb-1:1573937
   ReqNodeList=(null) ExcNodeList=(null)
   NodeList=slurm-cpu-hm-1
   BatchHost=slurm-cpu-hm-1
   NumNodes=1 NumCPUs=2 NumTasks=1 CPUs/Task=1 ReqB:S:C:T=0:0:*:*
   TRES=cpu=2,mem=64G,node=1
   Socks/Node=* NtasksPerN:B:S:C=0:0:*:* CoreSpec=*
   MinCPUsNode=1 MinMemoryNode=64G MinTmpDiskNode=0
   Features=(null) DelayBoot=00:00:00
   OverSubscribe=OK Contiguous=0 Licenses=(null) Network=(null)
   Command=/mnt/qb/work/levina/lfz197/runfile.sh
   WorkDir=/mnt/qb/work/levina/lfz197
   StdErr=/mnt/qb/work/levina/lfz197/log/hostname_2332772.err
   StdIn=/dev/null
   StdOut=/mnt/qb/work/levina/lfz197/log/hostname_2332772.out
   Power=
   NtasksPerTRES:0

